{
	"server": {
		"port" : 44444,
		"cookie_secret" : "qsef7QSzdZ72hdsdZYccejh7QSzehdSD7Zeidjhe_8jezd8DEZJecDEZje"
	},
	"database": {
		"type": "postgres",
		"dbname": "arkeogis",
		"user": "",
		"password": "",
		"host": "/var/run/postgresql",
		"sslmode": "disable"
	},
	"mail": {
		"host": "localhost:25",
		"user": "",
		"password": "",
		"from": "admin@arkeogis.org"
	}
}
